tasks/task1/Meas_car_new.csv

Model,MDO3014
Firmware Version,1.14

Waveform Type,ANALOG
Point Format,Y
Horizontal Units,s
Horizontal Scale,2
Horizontal Delay,0
Sample Interval,0.002
Record Length,10000
Gating,0.0% to 100.0%
Probe Attenuation,1
Vertical Units,V
Vertical Offset,0
Vertical Scale,2
Vertical Position,-2.98
,
,
,
Label,
TIME,CH2
-1.000000e+01,0.28
-9.998000e+00,0.28
-9.996000e+00,0.2
-9.994000e+00,0.2
-9.992000e+00,0.28
-9.990000e+00,0.2
-9.988000e+00,0.28
-9.986000e+00,0.28
-9.984000e+00,0.28
-9.982000e+00,0.36
-9.980000e+00,0.28
-9.978000e+00,0.2
-9.976000e+00,0.28
-9.974000e+00,0.28
-9.972000e+00,0.2
-9.970000e+00,0.2
-9.968000e+00,0.28
-9.966000e+00,0.28
-9.964000e+00,0.2
-9.962000e+00,0.28
-9.960000e+00,0.2
-9.958000e+00,0.28
-9.956000e+00,0.28
-9.954000e+00,0.2
-9.952000e+00,0.28
-9.950000e+00,0.28
-9.948000e+00,0.2
-9.946000e+00,0.28
-9.944000e+00,0.2
-9.942000e+00,0.28
-9.940000e+00,0.28
-9.938000e+00,0.2
-9.936000e+00,0.2
-9.934000e+00,0.28
-9.932000e+00,0.2
-9.930000e+00,0.28
-9.928000e+00,0.2
-9.926000e+00,0.28
-9.924000e+00,0.2
-9.922000e+00,0.28
-9.920000e+00,0.28
-9.918000e+00,0.28
-9.916000e+00,0.28
-9.914000e+00,0.28
-9.912000e+00,0.28
-9.910000e+00,0.28
-9.908000e+00,0.36
-9.906000e+00,0.2
-9.904000e+00,0.36
-9.902000e+00,0.2
-9.900000e+00,0.28
-9.898000e+00,0.28
-9.896000e+00,0.2
-9.894000e+00,0.2
-9.892000e+00,0.28
-9.890000e+00,0.2
-9.888000e+00,0.2
-9.886000e+00,0.28
-9.884000e+00,0.2
-9.882000e+00,0.28
-9.880000e+00,0.2
-9.878000e+00,0.2
-9.876000e+00,0.2
-9.874000e+00,0.2
-9.872000e+00,0.2
-9.870000e+00,0.2
-9.868000e+00,0.2
-9.866000e+00,0.2
-9.864000e+00,0.28
-9.862000e+00,0.28
-9.860000e+00,0.36
-9.858000e+00,0.2
-9.856000e+00,0.2
-9.854000e+00,0.2
-9.852000e+00,0.28
-9.850000e+00,0.28
-9.848000e+00,0.2
-9.846000e+00,0.28
-9.844000e+00,0.2
-9.842000e+00,0.28
-9.840000e+00,0.28
-9.838000e+00,0.2
-9.836000e+00,0.28
-9.834000e+00,0.2
-9.832000e+00,0.2
-9.830000e+00,0.28
-9.828000e+00,0.28
-9.826000e+00,0.28
-9.824000e+00,0.28
-9.822000e+00,0.28
-9.820000e+00,0.28
-9.818000e+00,0.28
-9.816000e+00,0.28
-9.814000e+00,0.28
-9.812000e+00,0.28
-9.810000e+00,0.28
-9.808000e+00,0.2
-9.806000e+00,0.28
-9.804000e+00,0.2
-9.802000e+00,0.36
-9.800000e+00,0.28
-9.798000e+00,0.2
-9.796000e+00,0.28
-9.794000e+00,0.2
-9.792000e+00,0.28
-9.790000e+00,0.2
-9.788000e+00,0.28
-9.786000e+00,0.12
-9.784000e+00,0.2
-9.782000e+00,0.2
-9.780000e+00,0.28
-9.778000e+00,0.36
-9.776000e+00,0.28
-9.774000e+00,0.28
-9.772000e+00,0.2
-9.770000e+00,0.36
-9.768000e+00,0.36
-9.766000e+00,0.28
-9.764000e+00,0.2
-9.762000e+00,0.2
-9.760000e+00,0.2
-9.758000e+00,0.28
-9.756000e+00,0.2
-9.754000e+00,0.28
-9.752000e+00,0.28
-9.750000e+00,0.28
-9.748000e+00,0.28
-9.746000e+00,0.2
-9.744000e+00,0.28
-9.742000e+00,0.36
-9.740000e+00,0.2
-9.738000e+00,0.28
-9.736000e+00,0.28
-9.734000e+00,0.28
-9.732000e+00,0.2
-9.730000e+00,0.28
-9.728000e+00,0.28
-9.726000e+00,0.2
-9.724000e+00,0.2
-9.722000e+00,0.28
-9.720000e+00,0.2
-9.718000e+00,0.28
-9.716000e+00,0.28
-9.714000e+00,0.28
-9.712000e+00,0.28
-9.710000e+00,0.28
-9.708000e+00,0.28
-9.706000e+00,0.28
-9.704000e+00,0.28
-9.702000e+00,0.28
-9.700000e+00,0.28
-9.698000e+00,0.28
-9.696000e+00,0.2
-9.694000e+00,0.28
-9.692000e+00,0.28
-9.690000e+00,0.28
-9.688000e+00,0.28
-9.686000e+00,0.2
-9.684000e+00,0.28
-9.682000e+00,0.36
-9.680000e+00,0.28
-9.678000e+00,11.64
-9.676000e+00,11.8
-9.674000e+00,11.72
-9.672000e+00,11.72
-9.670000e+00,11.72
-9.668000e+00,11.8
-9.666000e+00,11.8
-9.664000e+00,11.8
-9.662000e+00,11.72
-9.660000e+00,11.64
-9.658000e+00,11.64
-9.656000e+00,11.8
-9.654000e+00,11.8
-9.652000e+00,11.72
-9.650000e+00,11.8
-9.648000e+00,11.72
-9.646000e+00,11.72
-9.644000e+00,11.72
-9.642000e+00,11.72
-9.640000e+00,11.72
-9.638000e+00,11.72
-9.636000e+00,11.72
-9.634000e+00,11.72
-9.632000e+00,11.72
-9.630000e+00,11.8
-9.628000e+00,11.8
-9.626000e+00,11.64
-9.624000e+00,11.88
-9.622000e+00,11.8
-9.620000e+00,11.72
-9.618000e+00,11.72
-9.616000e+00,11.72
-9.614000e+00,11.8
-9.612000e+00,11.72
-9.610000e+00,11.8
-9.608000e+00,11.64
-9.606000e+00,11.72
-9.604000e+00,11.8
-9.602000e+00,11.72
-9.600000e+00,11.72
-9.598000e+00,11.64
-9.596000e+00,11.72
-9.594000e+00,11.8
-9.592000e+00,11.64
-9.590000e+00,11.72
-9.588000e+00,11.72
-9.586000e+00,11.8
-9.584000e+00,11.8
-9.582000e+00,11.72
-9.580000e+00,11.64
-9.578000e+00,11.64
-9.576000e+00,11.8
-9.574000e+00,11.72
-9.572000e+00,11.8
-9.570000e+00,11.8
-9.568000e+00,11.72
-9.566000e+00,0.28
-9.564000e+00,0.28
-9.562000e+00,0.28
-9.560000e+00,0.2
-9.558000e+00,0.28
-9.556000e+00,0.2
-9.554000e+00,0.28
-9.552000e+00,0.36
-9.550000e+00,0.2
-9.548000e+00,0.28
-9.546000e+00,0.28
-9.544000e+00,0.2
-9.542000e+00,0.28
-9.540000e+00,0.36
-9.538000e+00,0.28
-9.536000e+00,0.2
-9.534000e+00,0.2
-9.532000e+00,0.28
-9.530000e+00,0.2
-9.528000e+00,0.2
-9.526000e+00,0.2
-9.524000e+00,0.2
-9.522000e+00,0.2
-9.520000e+00,0.28
-9.518000e+00,0.28
-9.516000e+00,0.28
-9.514000e+00,0.28
-9.512000e+00,0.36
-9.510000e+00,0.28
-9.508000e+00,0.28
-9.506000e+00,0.36
-9.504000e+00,0.2
-9.502000e+00,0.2
-9.500000e+00,0.28
-9.498000e+00,0.2
-9.496000e+00,0.28
-9.494000e+00,0.28
-9.492000e+00,0.28
-9.490000e+00,0.28
-9.488000e+00,0.28
-9.486000e+00,0.28
-9.484000e+00,0.2
-9.482000e+00,0.2
-9.480000e+00,0.2
-9.478000e+00,0.2
-9.476000e+00,0.28
-9.474000e+00,0.28
-9.472000e+00,0.2
-9.470000e+00,0.2
-9.468000e+00,0.2
-9.466000e+00,0.28
-9.464000e+00,0.28
-9.462000e+00,0.2
-9.460000e+00,0.28
-9.458000e+00,0.28
-9.456000e+00,0.2
-9.454000e+00,0.12
-9.452000e+00,0.2
-9.450000e+00,0.2
-9.448000e+00,0.36
-9.446000e+00,0.28
-9.444000e+00,0.2
-9.442000e+00,0.2
-9.440000e+00,0.28
-9.438000e+00,0.28
-9.436000e+00,0.28
-9.434000e+00,0.2
-9.432000e+00,0.2
-9.430000e+00,0.2
-9.428000e+00,0.2
-9.426000e+00,0.28
-9.424000e+00,0.36
-9.422000e+00,0.2
-9.420000e+00,0.28
-9.418000e+00,0.28
-9.416000e+00,0.28
-9.414000e+00,0.28
-9.412000e+00,0.2
-9.410000e+00,0.28
-9.408000e+00,0.2
-9.406000e+00,0.28
-9.404000e+00,0.2
-9.402000e+00,0.28
-9.400000e+00,0.2
-9.398000e+00,0.2
-9.396000e+00,0.28
-9.394000e+00,0.28
-9.392000e+00,0.2
-9.390000e+00,0.28
-9.388000e+00,0.28
-9.386000e+00,0.28
-9.384000e+00,0.28
-9.382000e+00,0.28
-9.380000e+00,0.28
-9.378000e+00,0.28
-9.376000e+00,0.28
-9.374000e+00,0.2
-9.372000e+00,0.2
-9.370000e+00,0.2
-9.368000e+00,0.28
-9.366000e+00,0.2
-9.364000e+00,0.28
-9.362000e+00,0.28
-9.360000e+00,0.2
-9.358000e+00,0.28
-9.356000e+00,0.2
-9.354000e+00,0.28
-9.352000e+00,0.28
-9.350000e+00,0.36
-9.348000e+00,0.28
-9.346000e+00,0.28
-9.344000e+00,0.2
-9.342000e+00,0.2
-9.340000e+00,0.28
-9.338000e+00,0.28
-9.336000e+00,0.2
-9.334000e+00,0.28
-9.332000e+00,0.28
-9.330000e+00,0.28
-9.328000e+00,0.28
-9.326000e+00,0.28
-9.324000e+00,0.28
-9.322000e+00,0.2
-9.320000e+00,0.28
-9.318000e+00,0.28
-9.316000e+00,0.2
-9.314000e+00,0.28
-9.312000e+00,0.2
-9.310000e+00,0.28
-9.308000e+00,0.28
-9.306000e+00,0.28
-9.304000e+00,0.28
-9.302000e+00,0.28
-9.300000e+00,0.2
-9.298000e+00,0.36
-9.296000e+00,0.28
-9.294000e+00,0.28
-9.292000e+00,0.2
-9.290000e+00,0.36
-9.288000e+00,0.28
-9.286000e+00,0.28
-9.284000e+00,0.36
-9.282000e+00,0.28
-9.280000e+00,0.28
-9.278000e+00,0.28
-9.276000e+00,0.2
-9.274000e+00,0.2
-9.272000e+00,0.28
-9.270000e+00,0.2
-9.268000e+00,0.28
-9.266000e+00,0.2
-9.264000e+00,0.28
-9.262000e+00,0.28
-9.260000e+00,0.28
-9.258000e+00,0.28
-9.256000e+00,0.28
-9.254000e+00,0.28
-9.252000e+00,0.28
-9.250000e+00,0.2
-9.248000e+00,0.2
-9.246000e+00,0.28
-9.244000e+00,0.28
-9.242000e+00,0.2
-9.240000e+00,0.2
-9.238000e+00,0.28
-9.236000e+00,0.36
-9.234000e+00,0.28
-9.232000e+00,0.2
-9.230000e+00,0.28
-9.228000e+00,0.28
-9.226000e+00,0.28
-9.224000e+00,0.28
-9.222000e+00,0.2
-9.220000e+00,0.2
-9.218000e+00,0.28
-9.216000e+00,0.28
-9.214000e+00,0.28
-9.212000e+00,0.2
-9.210000e+00,0.28
-9.208000e+00,0.2
-9.206000e+00,0.28
-9.204000e+00,0.28
-9.202000e+00,0.28
-9.200000e+00,0.2
-9.198000e+00,0.28
-9.196000e+00,0.2
-9.194000e+00,0.28
-9.192000e+00,0.28
-9.190000e+00,0.2
-9.188000e+00,0.28
-9.186000e+00,0.2
-9.184000e+00,0.2
-9.182000e+00,0.2
-9.180000e+00,0.28
-9.178000e+00,0.2
-9.176000e+00,0.28
-9.174000e+00,0.28
-9.172000e+00,0.28
-9.170000e+00,0.28
-9.168000e+00,0.2
-9.166000e+00,0.2
-9.164000e+00,0.28
-9.162000e+00,0.36
-9.160000e+00,0.2
-9.158000e+00,0.2
-9.156000e+00,0.28
-9.154000e+00,0.2
-9.152000e+00,0.28
-9.150000e+00,0.28
-9.148000e+00,0.28
-9.146000e+00,0.12
-9.144000e+00,0.28
-9.142000e+00,0.28
-9.140000e+00,0.28
-9.138000e+00,0.2
-9.136000e+00,0.28
-9.134000e+00,0.2
-9.132000e+00,0.28
-9.130000e+00,0.28
-9.128000e+00,0.28
-9.126000e+00,0.28
-9.124000e+00,0.28
-9.122000e+00,0.28
-9.120000e+00,0.36
-9.118000e+00,0.28
-9.116000e+00,0.28
-9.114000e+00,0.36
-9.112000e+00,0.28
-9.110000e+00,0.2
-9.108000e+00,0.2
-9.106000e+00,0.36
-9.104000e+00,0.28
-9.102000e+00,0.28
-9.100000e+00,0.28
-9.098000e+00,0.28
-9.096000e+00,0.28
-9.094000e+00,0.2
-9.092000e+00,0.28
-9.090000e+00,0.28
-9.088000e+00,0.28
-9.086000e+00,0.28
-9.084000e+00,0.28
-9.082000e+00,0.2
-9.080000e+00,0.2
-9.078000e+00,0.28
-9.076000e+00,0.28
-9.074000e+00,0.2
-9.072000e+00,0.28
-9.070000e+00,0.2
-9.068000e+00,0.28
-9.066000e+00,0.28
-9.064000e+00,0.28
-9.062000e+00,0.2
-9.060000e+00,0.28
-9.058000e+00,0.28
-9.056000e+00,0.28
-9.054000e+00,0.28
-9.052000e+00,0.2
-9.050000e+00,0.36
-9.048000e+00,0.28
-9.046000e+00,0.2
-9.044000e+00,0.2
-9.042000e+00,0.2
-9.040000e+00,0.28
-9.038000e+00,0.2
-9.036000e+00,0.36
-9.034000e+00,0.2
-9.032000e+00,0.36
-9.030000e+00,0.28
-9.028000e+00,0.28
-9.026000e+00,0.28
-9.024000e+00,0.2
-9.022000e+00,0.2
-9.020000e+00,0.2
-9.018000e+00,0.2
-9.016000e+00,0.28
-9.014000e+00,0.28
-9.012000e+00,0.28
-9.010000e+00,0.28
-9.008000e+00,0.2
-9.006000e+00,0.28
-9.004000e+00,0.28
-9.002000e+00,0.2
-9.000000e+00,0.28
-8.998000e+00,0.28
-8.996000e+00,0.28
-8.994000e+00,0.28
-8.992000e+00,0.28
-8.990000e+00,0.28
-8.988000e+00,0.28
-8.986000e+00,0.28
-8.984000e+00,0.2
-8.982000e+00,0.28
-8.980000e+00,0.28
-8.978000e+00,0.2
-8.976000e+00,0.28
-8.974000e+00,0.28
-8.972000e+00,0.28
-8.970000e+00,0.2
-8.968000e+00,0.12
-8.966000e+00,0.28
-8.964000e+00,0.28
-8.962000e+00,0.28
-8.960000e+00,0.28
-8.958000e+00,0.2
-8.956000e+00,0.28
-8.954000e+00,0.2
-8.952000e+00,0.2
-8.950000e+00,0.2
-8.948000e+00,0.28
-8.946000e+00,0.2
-8.944000e+00,0.28
-8.942000e+00,0.28
-8.940000e+00,0.2
-8.938000e+00,0.28
-8.936000e+00,0.28
-8.934000e+00,0.36
-8.932000e+00,0.28
-8.930000e+00,0.28
-8.928000e+00,0.28
-8.926000e+00,0.28
-8.924000e+00,0.2
-8.922000e+00,0.28
-8.920000e+00,0.12
-8.918000e+00,0.28
-8.916000e+00,0.2
-8.914000e+00,0.2
-8.912000e+00,0.28
-8.910000e+00,0.28
-8.908000e+00,0.2
-8.906000e+00,0.28
-8.904000e+00,0.28
-8.902000e+00,0.2
-8.900000e+00,0.28
-8.898000e+00,0.28
-8.896000e+00,0.28
-8.894000e+00,0.28
-8.892000e+00,0.28
-8.890000e+00,0.2
-8.888000e+00,11.8
-8.886000e+00,11.72
-8.884000e+00,11.72
-8.882000e+00,11.64
-8.880000e+00,11.72
-8.878000e+00,11.8
-8.876000e+00,11.8
-8.874000e+00,11.72
-8.872000e+00,11.72
-8.870000e+00,11.8
-8.868000e+00,11.72
-8.866000e+00,11.72
-8.864000e+00,11.64
-8.862000e+00,11.8
-8.860000e+00,11.72
-8.858000e+00,11.72
-8.856000e+00,11.72
-8.854000e+00,11.72
-8.852000e+00,11.8
-8.850000e+00,11.72
-8.848000e+00,11.72
-8.846000e+00,11.72
-8.844000e+00,11.64
-8.842000e+00,11.8
-8.840000e+00,11.8
-8.838000e+00,11.64
-8.836000e+00,11.72
-8.834000e+00,11.8
-8.832000e+00,11.72
-8.830000e+00,11.72
-8.828000e+00,11.72
-8.826000e+00,11.56
-8.824000e+00,11.72
-8.822000e+00,11.8
-8.820000e+00,11.72
-8.818000e+00,11.72
-8.816000e+00,11.72
-8.814000e+00,11.72
-8.812000e+00,11.72
-8.810000e+00,11.72
-8.808000e+00,11.8
-8.806000e+00,11.8
-8.804000e+00,11.72
-8.802000e+00,11.72
-8.800000e+00,11.8
-8.798000e+00,11.8
-8.796000e+00,11.72
-8.794000e+00,11.8
-8.792000e+00,11.72
-8.790000e+00,11.72
-8.788000e+00,11.72
-8.786000e+00,11.72
-8.784000e+00,11.72
-8.782000e+00,11.64
-8.780000e+00,11.72
-8.778000e+00,11.64
-8.776000e+00,11.72
-8.774000e+00,0.28
-8.772000e+00,0.28
-8.770000e+00,0.2
-8.768000e+00,0.2
-8.766000e+00,0.2
-8.764000e+00,0.28
-8.762000e+00,0.2
-8.760000e+00,0.28
-8.758000e+00,0.28
-8.756000e+00,0.2
-8.754000e+00,0.28
-8.752000e+00,0.2
-8.750000e+00,0.28
-8.748000e+00,0.28
-8.746000e+00,0.2
-8.744000e+00,0.28
-8.742000e+00,0.2
-8.740000e+00,0.28
-8.738000e+00,0.2
-8.736000e+00,0.28
-8.734000e+00,0.28
-8.732000e+00,0.28
-8.730000e+00,0.36
-8.728000e+00,0.2
-8.726000e+00,0.28
-8.724000e+00,0.28
-8.722000e+00,0.2
-8.720000e+00,0.28
-8.718000e+00,0.2
-8.716000e+00,0.2
-8.714000e+00,0.2
-8.712000e+00,0.28
-8.710000e+00,0.2
-8.708000e+00,0.2
-8.706000e+00,0.28
-8.704000e+00,0.2
-8.702000e+00,0.28
-8.700000e+00,0.28
-8.698000e+00,0.28
-8.696000e+00,0.28
-8.694000e+00,0.28
-8.692000e+00,0.2
-8.690000e+00,0.2
-8.688000e+00,0.36
-8.686000e+00,0.2
-8.684000e+00,0.2
-8.682000e+00,0.2
-8.680000e+00,0.28
-8.678000e+00,0.2
-8.676000e+00,0.2
-8.674000e+00,0.28
-8.672000e+00,0.36
-8.670000e+00,0.28
-8.668000e+00,0.28
-8.666000e+00,0.2
-8.664000e+00,0.28
-8.662000e+00,0.28
-8.660000e+00,0.36
-8.658000e+00,0.28
-8.656000e+00,0.28
-8.654000e+00,0.28
-8.652000e+00,0.2
-8.650000e+00,0.2
-8.648000e+00,0.28
-8.646000e+00,0.36
-8.644000e+00,0.2
-8.642000e+00,0.2
-8.640000e+00,0.28
-8.638000e+00,0.2
-8.636000e+00,0.28
-8.634000e+00,0.2
-8.632000e+00,0.2
-8.630000e+00,0.28
-8.628000e+00,0.28
-8.626000e+00,0.28
-8.624000e+00,0.28
-8.622000e+00,0.28
-8.620000e+00,0.28
-8.618000e+00,0.28
-8.616000e+00,0.28
-8.614000e+00,0.2
-8.612000e+00,0.2
-8.610000e+00,0.28
-8.608000e+00,0.2
-8.606000e+00,0.28
-8.604000e+00,0.28
-8.602000e+00,0.28
-8.600000e+00,0.36
-8.598000e+00,0.28
-8.596000e+00,0.2
-8.594000e+00,0.28
-8.592000e+00,0.28
-8.590000e+00,0.2
-8.588000e+00,0.2
-8.586000e+00,0.28
-8.584000e+00,0.28
-8.582000e+00,0.2
-8.580000e+00,0.2
-8.578000e+00,0.28
-8.576000e+00,0.28
-8.574000e+00,0.2
-8.572000e+00,0.2
-8.570000e+00,0.2
-8.568000e+00,0.28
-8.566000e+00,0.2
-8.564000e+00,0.28
-8.562000e+00,0.2
-8.560000e+00,0.28
-8.558000e+00,0.28
-8.556000e+00,0.28
-8.554000e+00,0.28
-8.552000e+00,0.28
-8.550000e+00,0.28
-8.548000e+00,0.28
-8.546000e+00,0.2
-8.544000e+00,0.28
-8.542000e+00,0.36
-8.540000e+00,0.28
-8.538000e+00,0.28
-8.536000e+00,0.28
-8.534000e+00,0.2
-8.532000e+00,0.28
-8.530000e+00,0.36
-8.528000e+00,0.28
-8.526000e+00,0.12
-8.524000e+00,0.28
-8.522000e+00,0.28
-8.520000e+00,0.2
-8.518000e+00,0.28
-8.516000e+00,0.36
-8.514000e+00,0.28
-8.512000e+00,0.2
-8.510000e+00,0.28
-8.508000e+00,0.36
-8.506000e+00,0.36
-8.504000e+00,0.28
-8.502000e+00,0.2
-8.500000e+00,0.36
-8.498000e+00,0.28
-8.496000e+00,0.28
-8.494000e+00,0.2
-8.492000e+00,0.2
-8.490000e+00,0.28
-8.488000e+00,0.28
-8.486000e+00,0.28
-8.484000e+00,0.28
-8.482000e+00,0.28
-8.480000e+00,0.28
-8.478000e+00,0.2
-8.476000e+00,0.28
-8.474000e+00,0.2
-8.472000e+00,0.28
-8.470000e+00,0.36
-8.468000e+00,0.2
-8.466000e+00,0.2
-8.464000e+00,0.36
-8.462000e+00,0.2
-8.460000e+00,0.2
-8.458000e+00,0.2
-8.456000e+00,0.28
-8.454000e+00,0.28
-8.452000e+00,0.2
-8.450000e+00,0.28
-8.448000e+00,0.28
-8.446000e+00,0.28
-8.444000e+00,0.28
-8.442000e+00,0.2
-8.440000e+00,0.2
-8.438000e+00,0.2
-8.436000e+00,0.28
-8.434000e+00,0.28
-8.432000e+00,0.28
-8.430000e+00,0.28
-8.428000e+00,0.28
-8.426000e+00,0.2
-8.424000e+00,0.2
-8.422000e+00,0.28
-8.420000e+00,0.28
-8.418000e+00,0.28
-8.416000e+00,0.2
-8.414000e+00,0.28
-8.412000e+00,0.28
-8.410000e+00,0.28
-8.408000e+00,0.28
-8.406000e+00,0.28
-8.404000e+00,0.28
-8.402000e+00,0.2
-8.400000e+00,0.36
-8.398000e+00,0.2
-8.396000e+00,0.2
-8.394000e+00,0.28
-8.392000e+00,0.2
-8.390000e+00,0.28
-8.388000e+00,0.28
-8.386000e+00,0.2
-8.384000e+00,0.28
-8.382000e+00,0.28
-8.380000e+00,0.28
-8.378000e+00,0.28
-8.376000e+00,0.2
-8.374000e+00,0.2
-8.372000e+00,0.28
-8.370000e+00,0.28
-8.368000e+00,0.28
-8.366000e+00,0.2
-8.364000e+00,0.28
-8.362000e+00,0.28
-8.360000e+00,0.28
-8.358000e+00,0.28
-8.356000e+00,0.28
-8.354000e+00,0.28
-8.352000e+00,0.28
-8.350000e+00,0.2
-8.348000e+00,0.36
-8.346000e+00,0.36
-8.344000e+00,0.28
-8.342000e+00,0.12
-8.340000e+00,0.2
-8.338000e+00,0.28
-8.336000e+00,0.28
-8.334000e+00,0.28
-8.332000e+00,0.36
-8.330000e+00,0.28
-8.328000e+00,0.28
-8.326000e+00,0.28
-8.324000e+00,0.28
-8.322000e+00,0.28
-8.320000e+00,0.2
-8.318000e+00,0.28
-8.316000e+00,0.2
-8.314000e+00,0.28
-8.312000e+00,0.2
-8.310000e+00,0.2
-8.308000e+00,0.2
-8.306000e+00,11.8
-8.304000e+00,11.8
-8.302000e+00,11.72
-8.300000e+00,11.72
-8.298000e+00,11.72
-8.296000e+00,11.72
-8.294000e+00,11.8
-8.292000e+00,11.88
-8.290000e+00,11.72
-8.288000e+00,11.8
-8.286000e+00,11.64
-8.284000e+00,11.72
-8.282000e+00,11.8
-8.280000e+00,11.72
-8.278000e+00,11.8
-8.276000e+00,11.8
-8.274000e+00,11.72
-8.272000e+00,11.72
-8.270000e+00,11.72
-8.268000e+00,11.8
-8.266000e+00,11.72
-8.264000e+00,11.72
-8.262000e+00,11.8
-8.260000e+00,11.72
-8.258000e+00,11.72
-8.256000e+00,11.72
-8.254000e+00,11.72
-8.252000e+00,11.8
-8.250000e+00,11.72
-8.248000e+00,11.72
-8.246000e+00,11.72
-8.244000e+00,11.72
-8.242000e+00,11.64
-8.240000e+00,11.8
-8.238000e+00,11.72
-8.236000e+00,11.72
-8.234000e+00,11.8
-8.232000e+00,11.64
-8.230000e+00,11.64
-8.228000e+00,11.8
-8.226000e+00,11.8
-8.224000e+00,11.72
-8.222000e+00,11.8
-8.220000e+00,11.72
-8.218000e+00,11.72
-8.216000e+00,11.72
-8.214000e+00,11.72
-8.212000e+00,11.72
-8.210000e+00,11.72
-8.208000e+00,11.72
-8.206000e+00,11.72
-8.204000e+00,11.8
-8.202000e+00,11.64
-8.200000e+00,11.72
-8.198000e+00,11.72
-8.196000e+00,11.72
-8.194000e+00,0.28
-8.192000e+00,0.36
-8.190000e+00,0.2
-8.188000e+00,0.28
-8.186000e+00,0.2
-8.184000e+00,0.28
-8.182000e+00,0.2
-8.180000e+00,0.28
-8.178000e+00,0.28
-8.176000e+00,0.28
-8.174000e+00,0.28
-8.172000e+00,0.28
-8.170000e+00,0.2
-8.168000e+00,0.28
-8.166000e+00,0.28
-8.164000e+00,0.28
-8.162000e+00,0.28
-8.160000e+00,0.28
-8.158000e+00,0.2
-8.156000e+00,0.28
-8.154000e+00,0.28
-8.152000e+00,0.28
-8.150000e+00,0.28
-8.148000e+00,0.28
-8.146000e+00,0.2
-8.144000e+00,0.12
-8.142000e+00,0.2
-8.140000e+00,0.28
-8.138000e+00,0.36
-8.136000e+00,0.28
-8.134000e+00,0.28
-8.132000e+00,0.28
-8.130000e+00,0.28
-8.128000e+00,0.28
-8.126000e+00,0.28
-8.124000e+00,0.28
-8.122000e+00,0.2
-8.120000e+00,0.2
-8.118000e+00,0.28
-8.116000e+00,0.28
-8.114000e+00,0.28
-8.112000e+00,0.28
-8.110000e+00,0.28
-8.108000e+00,0.28
-8.106000e+00,0.2
-8.104000e+00,0.28
-8.102000e+00,0.36
-8.100000e+00,0.28
-8.098000e+00,0.28
-8.096000e+00,0.28
-8.094000e+00,0.28
-8.092000e+00,0.28
-8.090000e+00,0.2
-8.088000e+00,0.2
-8.086000e+00,0.2
-8.084000e+00,0.2
-8.082000e+00,0.28
-8.080000e+00,0.28
-8.078000e+00,0.28
-8.076000e+00,0.28
-8.074000e+00,0.28
-8.072000e+00,0.28
-8.070000e+00,0.28
-8.068000e+00,0.28
-8.066000e+00,0.2
-8.064000e+00,0.2
-8.062000e+00,0.28
-8.060000e+00,0.2
-8.058000e+00,0.28
-8.056000e+00,0.2
-8.054000e+00,0.2
-8.052000e+00,0.28
-8.050000e+00,0.28
-8.048000e+00,0.28
-8.046000e+00,0.28
-8.044000e+00,0.28
-8.042000e+00,0.36
-8.040000e+00,0.2
-8.038000e+00,0.28
-8.036000e+00,0.28
-8.034000e+00,0.28
-8.032000e+00,0.28
-8.030000e+00,0.28
-8.028000e+00,0.28
-8.026000e+00,0.28
-8.024000e+00,0.2
-8.022000e+00,0.28
-8.020000e+00,0.2
-8.018000e+00,0.2
-8.016000e+00,0.28
-8.014000e+00,0.36
-8.012000e+00,0.28
-8.010000e+00,0.2
-8.008000e+00,0.28
-8.006000e+00,0.2
-8.004000e+00,0.28
-8.002000e+00,0.28
-8.000000e+00,0.28
-7.998000e+00,0.28
-7.996000e+00,0.2
-7.994000e+00,0.28
-7.992000e+00,0.36
-7.990000e+00,0.2
-7.988000e+00,0.28
-7.986000e+00,0.28
-7.984000e+00,0.28
-7.982000e+00,0.28
-7.980000e+00,0.28
-7.978000e+00,0.28
-7.976000e+00,0.28
-7.974000e+00,0.2
-7.972000e+00,0.2
-7.970000e+00,0.2
-7.968000e+00,0.28
-7.966000e+00,0.28
-7.964000e+00,0.2
-7.962000e+00,0.28
-7.960000e+00,0.28
-7.958000e+00,0.28
-7.956000e+00,0.2
-7.954000e+00,0.28
-7.952000e+00,0.2
-7.950000e+00,0.28
-7.948000e+00,0.28
-7.946000e+00,0.36
-7.944000e+00,0.2
-7.942000e+00,0.28
-7.940000e+00,0.2
-7.938000e+00,0.28
-7.936000e+00,0.28
-7.934000e+00,0.28
-7.932000e+00,0.2
-7.930000e+00,0.28
-7.928000e+00,0.28
-7.926000e+00,0.28
-7.924000e+00,0.28
-7.922000e+00,0.28
-7.920000e+00,0.2
-7.918000e+00,0.28
-7.916000e+00,0.28
-7.914000e+00,0.36
-7.912000e+00,0.28
